{
  "invokeMenuActionHook": "lk.ku",
  "invokeMenuActionHookJunkValue": "1849187210",
  "setXandYHook": "ir.rm",
  "setViewportWalkingFieldHook": "ir.bq",
  "checkClickFieldHook": "ir.bh",
  "setSelectedSpellWidgetHook": "ag.oz",
  "setSelectedSpellWidgetMultiplier": "-970338421",
  "setSelectedSpellChildIndexHook": "client.oc",
  "setSelectedSpellChildIndexMultiplier": "746487967",
  "setSelectedSpellItemIDHook": "client.ot",
  "setSelectedSpellItemIDMultiplier": "-280758941",
  "getNpcCompositionOverheadIcon": "hl.bb",
  "menuEntryIndexFieldHook": "rl1.ob",
  "menuEntryIdentifiersArrayFieldHook": "client.ny",
  "menuEntryItemIdsArrayFieldHook": "client.nn",
  "menuEntryOptionsArrayFieldHook": "client.nh",
  "menuEntryParam0ArrayFieldHook": "client.nj",
  "menuEntryParam1ArrayFieldHook": "client.nc",
  "menuEntryTargetsArrayFieldHook": "client.om",
  "menuEntryTypesArrayFieldHook": "client.ni",
  "getActorAnimationIdFieldHook": "dq.cf",
  "getActorAnimationIdMultiplier": "-2121799935"
}
